Target Markdown and stantargets for Bayesian model validation pipelines
…
* High-performance computing with `targets`: <https://books.ropensci.org/targets/hpc.html>
* Distributed computing available, not just multicore: SLURM, SGE, TORQUE, PBS, LSF 
* Persistent workers with the [`clustermq`](https://mschubert.github.io/clustermq/) package: `tar_make_clustermq()`
* Transient workers with the [`future`](https://future.futureverse.org/) package: `tar_make_future()`
* Monitor progress with [`tar_watch()`](https://docs.ropensci.org/targets/reference/tar_watch.html), [`tar_poll()`](https://docs.ropensci.org/targets/reference/tar_poll.html), or [`tar_progress_branches()`](https://docs.ropensci.org/targets/reference/tar_progress_branches.html).

---

## Simulation results

```r
tar_read(model)
#> # A tibble: 8,000 x 10
#>    variable    q2.5     q25    q75   q97.5  rhat .join_data .rep     .file      .name
#>    <chr>      <dbl>   <dbl>  <dbl>   <dbl> <dbl>      <dbl> <chr>    <chr>      <chr>
#>  1 beta[1]   0.411   0.798   1.21   1.58    1.00      0.768 14556f0a model.stan model
#>  2 beta[2]  -0.816  -0.249   0.336  0.916   1.00      0.163 14556f0a model.stan model
#>  3 beta[1]  -0.610  -0.220   0.186  0.582   1.00     -0.602 a72e116b model.stan model
#>  4 beta[2]  -0.527   0.0733  0.692  1.27    1.00      1.15  a72e116b model.stan model
#>  5 beta[1]  -0.0102  0.357   0.772  1.13    1.00      0.353 df298e43 model.stan model
#>  6 beta[2]  -0.0254  0.544   1.14   1.71    1.00      0.128 df298e43 model.stan model
#>  7 beta[1]   0.346   0.732   1.13   1.51    1.00      1.50  7267cadc model.stan model
#>  8 beta[2]  -1.66   -1.07   -0.475  0.103   1.00     -0.624 7267cadc model.stan model
#>  9 beta[1]  -1.24   -0.866  -0.455 -0.0642  1.00     -0.682 6ca726a2 model.stan model
#> 10 beta[2]  -1.68   -1.12   -0.502  0.0777  1.00     -0.139 6ca726a2 model.stan model
#> # … with 7,990 more rows
```
…
